<svg width="170" height="37" viewBox="0 0 170 37" fill="none" xmlns="http://www.w3.org/2000/svg">
<path d="M66.0522 12.9375C62.6942 12.9375 60.505 14.546 59.8871 17.4662C59.8667 17.5646 59.928 17.661 60.0244 17.6852L62.5031 18.29C62.5513 18.3011 62.6014 18.2937 62.6441 18.2677C62.6868 18.2417 62.7165 18.2009 62.7276 18.1527C63.1673 16.3327 64.1951 15.4848 65.9613 15.4848C68.0133 15.4848 68.889 16.405 68.889 18.5627V19.5256H64.542C61.2359 19.5256 59.3398 21.136 59.3398 23.9412C59.3398 26.5942 60.9614 28.0543 63.9075 28.0543C66.3862 28.0543 68.2303 26.7816 69.0096 24.5478V27.5664C69.0096 27.6684 69.0931 27.7519 69.1951 27.7519H71.7034C71.8055 27.7519 71.889 27.6684 71.889 27.5664V18.5312C71.889 14.8206 69.9261 12.9375 66.0522 12.9375ZM68.889 21.7093V22.3085C68.889 24.2584 67.2508 25.5683 64.8148 25.5683C62.6701 25.5683 62.2211 24.5182 62.2211 23.6388C62.2211 22.0432 63.6979 21.7093 64.9372 21.7093H68.889Z" fill="#3B3B61"/>
<path d="M92.3989 12.9082C89.7254 12.9082 87.9128 14.3386 87.1429 17.0492C86.7737 14.3386 85.1985 12.9082 82.577 12.9082C80.1243 12.9082 78.2468 14.3164 77.3841 16.782V13.4555C77.3841 13.3535 77.3006 13.27 77.1985 13.27H74.6308C74.5288 13.27 74.4453 13.3535 74.4453 13.4555V27.5668C74.4453 27.6688 74.5288 27.7523 74.6308 27.7523H77.2598C77.3618 27.7523 77.4453 27.6688 77.4453 27.5668V19.5C77.4453 17.2069 79.0594 15.667 81.4601 15.667C83.8293 15.667 84.3265 17.4073 84.3265 18.8655V27.5686C84.3265 27.6707 84.41 27.7542 84.5121 27.7542H87.141C87.243 27.7542 87.3265 27.6707 87.3265 27.5686V19.5C87.3265 17.1716 88.9017 15.667 91.3414 15.667C93.7106 15.667 94.2078 17.4073 94.2078 18.8655V27.5686C94.2078 27.6707 94.2913 27.7542 94.3933 27.7542H97.0222C97.1243 27.7542 97.2078 27.6707 97.2078 27.5686V18.231C97.2078 14.8488 95.4564 12.9082 92.3989 12.9082Z" fill="#3B3B61"/>
<path d="M105.676 19.2234C102.731 18.7429 102.327 17.895 102.327 17.049C102.327 16.2234 102.781 15.2401 104.952 15.2401C106.77 15.2401 107.642 15.9544 108.065 17.7855C108.087 17.8839 108.186 17.947 108.284 17.9247L110.701 17.4108C110.752 17.3996 110.794 17.37 110.82 17.3273C110.846 17.2846 110.855 17.2327 110.842 17.1844C110.082 14.1436 108.394 12.9043 105.011 12.9043C101.457 12.9043 99.4177 14.4702 99.4177 17.1993C99.4177 19.613 100.963 20.9228 104.588 21.5814C107.772 22.1343 108.332 22.7429 108.332 23.8115C108.304 25.0953 107.349 25.7447 105.496 25.7447C103.251 25.7447 102.058 24.8467 101.505 22.741C101.481 22.6464 101.384 22.587 101.288 22.6056L98.9 23.0898C98.8518 23.0991 98.8091 23.1287 98.7813 23.1696C98.7535 23.2104 98.7442 23.2605 98.7535 23.3087C99.4418 26.6742 101.447 28.1102 105.462 28.1102C109.188 28.1102 111.238 26.5517 111.238 23.7243C111.24 21.2364 109.627 19.9321 105.676 19.2234Z" fill="#3B3B61"/>
<path d="M134.932 9.25H127.861C127.759 9.25 127.676 9.33349 127.676 9.43553V27.5653C127.676 27.6674 127.759 27.7509 127.861 27.7509H130.641C130.743 27.7509 130.826 27.6674 130.826 27.5653V21.2852H134.991C139.019 21.2852 141.522 18.9791 141.522 15.2685C141.524 11.2741 139.307 9.25 134.932 9.25ZM130.826 12.0088H134.659C137.388 12.0088 138.401 12.9012 138.401 15.2982C138.401 17.6043 137.292 18.5876 134.689 18.5876H130.824V12.0088H130.826Z" fill="#3B3B61"/>
<path d="M118.994 12.9375C115.636 12.9375 113.446 14.546 112.829 17.4662C112.808 17.5646 112.869 17.661 112.966 17.6852L115.445 18.29C115.493 18.3011 115.543 18.2937 115.586 18.2677C115.628 18.2417 115.658 18.2009 115.669 18.1527C116.109 16.3327 117.137 15.4848 118.903 15.4848C120.955 15.4848 121.83 16.405 121.83 18.5627V19.5256H117.483C114.177 19.5256 112.281 21.136 112.281 23.9412C112.281 26.5942 113.903 28.0543 116.849 28.0543C119.328 28.0543 121.172 26.7816 121.951 24.5478V27.5664C121.951 27.6684 122.034 27.7519 122.137 27.7519H124.645C124.747 27.7519 124.83 27.6684 124.83 27.5664V18.5312C124.83 14.8206 122.866 12.9375 118.994 12.9375ZM121.83 21.7093V22.3085C121.83 24.2584 120.192 25.5683 117.756 25.5683C115.611 25.5683 115.163 24.5182 115.163 23.6388C115.163 22.0432 116.639 21.7093 117.879 21.7093H121.83Z" fill="#3B3B61"/>
<path d="M148.695 12.9375C145.337 12.9375 143.147 14.546 142.53 17.4662C142.509 17.5646 142.57 17.661 142.667 17.6852L145.146 18.29C145.194 18.3011 145.244 18.2937 145.287 18.2677C145.329 18.2417 145.359 18.2009 145.37 18.1527C145.81 16.3327 146.838 15.4848 148.604 15.4848C150.656 15.4848 151.531 16.405 151.531 18.5627V19.5256H147.183C143.877 19.5256 141.98 21.136 141.98 23.9412C141.98 26.5942 143.602 28.0543 146.548 28.0543C149.027 28.0543 150.871 26.7816 151.65 24.5478V27.5664C151.65 27.6684 151.734 27.7519 151.836 27.7519H154.344C154.446 27.7519 154.53 27.6684 154.53 27.5664V18.5312C154.53 14.8206 152.567 12.9375 148.695 12.9375ZM151.53 21.7093V22.3085C151.53 24.2584 149.891 25.5683 147.455 25.5683C145.311 25.5683 144.862 24.5182 144.862 23.6388C144.862 22.0432 146.339 21.7093 147.578 21.7093H151.53Z" fill="#3B3B61"/>
<path d="M57.027 9.25H54.2477C54.1457 9.25 54.0622 9.33349 54.0622 9.43553V17.0756H44.7635V9.43553C44.7635 9.33349 44.6801 9.25 44.578 9.25H41.7988C41.6968 9.25 41.6133 9.33349 41.6133 9.43553V27.5653C41.6133 27.6674 41.6968 27.7509 41.7988 27.7509H44.578C44.6801 27.7509 44.7635 27.6674 44.7635 27.5653V27.5616C44.7635 27.5616 44.7635 27.5616 44.7635 27.5598C44.7635 27.5598 44.7635 27.5598 44.7635 27.5579V19.9531H54.0622V27.5635C54.0622 27.6655 54.1457 27.749 54.2477 27.749H57.027C57.129 27.749 57.2125 27.6655 57.2125 27.5635V9.43553C57.2125 9.33349 57.129 9.25 57.027 9.25Z" fill="#3B3B61"/>
<path d="M27.047 16.4367C27.8577 16.2549 28.6852 16.3977 29.3735 16.8411C29.4811 16.9098 29.5831 16.9858 29.6796 17.0656C29.7149 17.0953 29.765 17.0526 29.739 17.0118L25.1416 9.65749C25.1175 9.62038 25.0581 9.64264 25.0674 9.68532C25.1008 9.85044 25.1175 10.0211 25.1175 10.1955V17.3217C25.1175 17.4571 25.2845 17.522 25.3735 17.42C25.8076 16.9283 26.3883 16.5833 27.047 16.4367Z" fill="#D2506A"/>
<path d="M5.7832 16.614C6.27299 16.3933 6.81659 16.3079 7.35091 16.3673C8.16167 16.4564 8.87781 16.8422 9.3843 17.4415C9.46408 17.5361 9.61807 17.4823 9.61807 17.358V10.2579C9.61807 8.81074 10.7609 7.58996 12.208 7.56584C13.2674 7.54915 14.1895 8.15953 14.6236 9.05007C14.6533 9.11129 14.7442 9.09089 14.7442 9.02224V7.692C14.7442 6.25787 15.8667 5.04452 17.2989 5.00185C18.7887 4.95732 20.0132 6.15583 20.0132 7.63634V8.97957C20.0132 9.04636 20.1023 9.06862 20.1319 9.00925C20.5698 8.14655 21.4677 7.56584 22.4826 7.56584C23.0818 7.56584 23.6329 7.76621 24.0763 8.10388C24.1115 8.1317 24.1579 8.08718 24.1338 8.05007L21.6514 4.07977C21.2507 3.18738 20.3546 2.56401 19.3119 2.56401C18.7182 2.56401 18.1709 2.76623 17.7368 3.10575C17.6774 3.15213 17.5884 3.13543 17.5494 3.0705L16.3787 1.19666H16.3769C15.9242 0.480526 15.1245 0.00186376 14.2136 8.47521e-06C12.7999 -0.00370209 11.644 1.21151 11.644 2.62338V4.00742C11.644 4.11688 11.5012 4.15769 11.4437 4.06493L11.2526 3.75881H11.2507C10.7962 3.03896 9.99469 2.5603 9.08189 2.5603C7.66631 2.5603 6.51975 3.70686 6.51975 5.12244V12.8423C6.51975 12.8682 6.48635 12.8775 6.47336 12.8552L6.44739 12.8126C5.57726 11.4193 3.74981 10.9276 2.33423 11.7606C1.59583 12.2003 1.11346 12.8961 0.931641 13.6642L3.90751 18.4285C3.96131 18.5157 4.09118 18.499 4.12643 18.4025C4.40473 17.6122 4.98914 16.9703 5.7832 16.614Z" fill="#D2506A"/>
<path d="M33.7902 23.7667C33.716 23.4773 33.5991 23.199 33.4432 22.9411L30.818 18.7407C30.7939 18.7036 30.7382 18.7036 30.716 18.7407L25.1112 27.7073C23.4321 30.3956 20.5361 32.0004 17.3654 32.0004C14.8589 32.0004 12.525 30.9967 10.8255 29.2472C10.768 29.1878 10.6752 29.262 10.7179 29.3307L12.8496 32.7407C14.5917 35.5273 17.7142 37.1637 21.0221 36.9874C23.9999 36.8279 26.6974 35.1767 28.2763 32.6498L33.7772 23.8465C33.7939 23.826 33.7976 23.7945 33.7902 23.7667Z" fill="#D2506A"/>
<path d="M169.683 13.353C169.648 13.3011 169.59 13.2695 169.529 13.2695H166.718C166.653 13.3159 166.607 13.3493 166.542 13.3957L164.818 18.4736C164.492 19.4717 164.08 20.6795 163.644 21.9578C163.293 22.9875 162.93 24.0506 162.596 25.0543H162.41C161.839 23.327 161.104 21.3066 160.51 19.674C160.351 19.2343 160.199 18.8187 160.063 18.4383L158.251 13.392C158.188 13.3475 158.139 13.3141 158.076 13.2695H155.175C155.112 13.2695 155.054 13.3011 155.021 13.353C154.987 13.405 154.98 13.4699 155.006 13.5274L160.958 27.4439C159.891 29.8075 159.041 30.1915 157.444 30.1915C157.037 30.1915 156.64 30.1489 156.208 30.0784C156.208 30.0784 156.13 30.0635 156.082 30.1359C156.034 30.2082 156.078 30.2732 156.078 30.2732L157.692 32.8557C157.722 32.904 157.781 32.9337 157.839 32.9299C160.538 32.7722 162.267 31.2602 163.72 27.8186L169.703 13.5256C169.724 13.4699 169.718 13.405 169.683 13.353Z" fill="#3B3B61"/>
</svg>
